Aggregate cosdata by keys — clump • coscos
…
# aggregate according to year and month
clump(cosdata, key = c("yyyy","mm"), .funs = mean, opts = coscos::viscos_options())
#> # A tibble: 36 x 6
#> # Groups:   yyyy [?]
#>     yyyy    mm QOBS_0001 QSIM_0001 QOBS_0002 QSIM_0002
#>    <int> <int>     <dbl>     <dbl>     <dbl>     <dbl>
#>  1  2007     1      3.55      4.05      6.08      6.61
#>  2  2007     2      2.99      3.03      3.95      4.17
#>  3  2007     3      3.25      3.94      9.05      6.97
#>  4  2007     4      8.06     11.8       8.72      8.31
#>  5  2007     5     11.6      12.5       7.21      8.68
#>  6  2007     6     10.7      13.0       4.14      8.73
#>  7  2007     7     14.3      12.1       3.44      5.54
#>  8  2007     8      7.24      7.13      3.15      4.55
#>  9  2007     9     13.6      10.4      19.1      17.5 
#> 10  2007    10      8.13      5.83      7.13      5.32
#> # ... with 26 more rows
…
