Forge cosdata — forge • coscos
…
    cook_cosdata

Other cosdata manipulators: chop,
  clump

    Examples

# tidy: 
forge( coscos::viscos_example() )
#> Error in gather_(., key_col = c("key"), value_col = c("value"), gather_cols = c(le_q_names)): konnte Funktion "gather_" nicht finden

# only s-data columns:
forge( coscos::viscos_example(), form = "s_only" )
#> # A tibble: 26,304 x 2
#>    QSIM_0001 QSIM_0002
#>        <dbl>     <dbl>
#>  1      3.48      3.11
#>  2      3.48      3.11
#>  3      3.48      3.11
#>  4      3.48      3.11
#>  5      3.48      3.11
#>  6      3.49      3.11
#>  7      3.49      3.11
#>  8      3.49      3.11
#>  9      3.49      3.11
#> 10      3.50      3.11
#> # ... with 26,294 more rows
…
