mould cosdata — mould • coscos
…
shell ... Returns the cosdata withouth the 
                           data columns(i.e. the \(o & s\) columns).

    See also

    cook_cosdata

Other cosdata manipulators: chop,
  clump

    Examples

# tidy: 
mould( coscos::viscos_example() )
#> # A tibble: 105,216 x 4
#>    posixdate           period key       value
#>    <dttm>               <int> <chr>     <dbl>
#>  1 2007-01-01 00:00:00      0 QOBS_0001  2.98
#>  2 2007-01-01 01:00:00      0 QOBS_0001  2.89
#>  3 2007-01-01 02:00:00      0 QOBS_0001  2.64
#>  4 2007-01-01 03:00:00      0 QOBS_0001  2.51
#>  5 2007-01-01 04:00:00      0 QOBS_0001  2.42
#>  6 2007-01-01 05:00:00      0 QOBS_0001  2.34
#>  7 2007-01-01 06:00:00      0 QOBS_0001  2.32
#>  8 2007-01-01 07:00:00      0 QOBS_0001  2.31
#>  9 2007-01-01 08:00:00      0 QOBS_0001  2.27
#> 10 2007-01-01 09:00:00      0 QOBS_0001  2.25
#> # ... with 105,206 more rows

# only s-data columns:
mould( coscos::viscos_example(), form = "s_only" )
#> # A tibble: 26,304 x 2
#>    QSIM_0001 QSIM_0002
#>        <dbl>     <dbl>
#>  1      3.48      3.11
#>  2      3.48      3.11
#>  3      3.48      3.11
#>  4      3.48      3.11
#>  5      3.48      3.11
#>  6      3.49      3.11
#>  7      3.49      3.11
#>  8      3.49      3.11
#>  9      3.49      3.11
#> 10      3.50      3.11
#> # ... with 26,294 more rows
…
